query_no Q0 346 0 0.958815843437597 BlancoElbassuoniLM
query_no Q0 423 1 0.35911263902975776 BlancoElbassuoniLM
query_no Q0 411 2 0.3292204988726981 BlancoElbassuoniLM
query_no Q0 474 3 0.2728539785960999 BlancoElbassuoniLM
query_no Q0 492 4 0.2215044510265078 BlancoElbassuoniLM
query_no Q0 43 5 0.2202808964170138 BlancoElbassuoniLM
query_no Q0 354 6 0.2202808964170138 BlancoElbassuoniLM
query_no Q0 208 7 0.2202808964170138 BlancoElbassuoniLM
query_no Q0 408 8 0.2202808964170138 BlancoElbassuoniLM
query_no Q0 57 9 0.2202808964170138 BlancoElbassuoniLM
query_no Q0 460 10 0.2202808964170138 BlancoElbassuoniLM
query_no Q0 14 11 0.2202808964170138 BlancoElbassuoniLM
query_no Q0 155 12 0.2202808964170138 BlancoElbassuoniLM
query_no Q0 507 13 0.20821774711936614 BlancoElbassuoniLM
query_no Q0 571 14 0.20821774711936614 BlancoElbassuoniLM
query_no Q0 431 15 0.20545820683717414 BlancoElbassuoniLM
query_no Q0 279 16 0.20419989734039967 BlancoElbassuoniLM
query_no Q0 144 17 0.17308595505806856 BlancoElbassuoniLM
query_no Q0 112 18 0.1421380751889348 BlancoElbassuoniLM
query_no Q0 60 19 0.13983804311674392 BlancoElbassuoniLM
query_no Q0 351 20 0.13563432045344387 BlancoElbassuoniLM
query_no Q0 257 21 0.1252964137434036 BlancoElbassuoniLM
query_no Q0 245 22 0.11002895275415475 BlancoElbassuoniLM
query_no Q0 198 23 0.10019111371330586 BlancoElbassuoniLM
query_no Q0 570 24 0.10019111371330586 BlancoElbassuoniLM
query_no Q0 168 25 0.0967438135528276 BlancoElbassuoniLM
query_no Q0 18 26 0.09525154151860717 BlancoElbassuoniLM
query_no Q0 399 27 0.09525154151860717 BlancoElbassuoniLM
query_no Q0 499 28 0.09484180100824131 BlancoElbassuoniLM
query_no Q0 191 29 0.09315509271981975 BlancoElbassuoniLM
query_no Q0 183 30 0.08396460801674936 BlancoElbassuoniLM
query_no Q0 407 31 0.08163844367867282 BlancoElbassuoniLM
query_no Q0 373 32 0.0797634793825749 BlancoElbassuoniLM
query_no Q0 383 33 0.0797634793825749 BlancoElbassuoniLM
query_no Q0 100 34 0.0797634793825749 BlancoElbassuoniLM
query_no Q0 52 35 0.0797634793825749 BlancoElbassuoniLM
query_no Q0 202 36 0.0797634793825749 BlancoElbassuoniLM
query_no Q0 105 37 0.0797634793825749 BlancoElbassuoniLM
query_no Q0 240 38 0.0797634793825749 BlancoElbassuoniLM
query_no Q0 514 39 0.0797634793825749 BlancoElbassuoniLM
query_no Q0 283 40 0.0797634793825749 BlancoElbassuoniLM
query_no Q0 35 41 0.0797634793825749 BlancoElbassuoniLM
query_no Q0 573 42 0.07872247624037246 BlancoElbassuoniLM
query_no Q0 135 43 0.07861346334647946 BlancoElbassuoniLM
query_no Q0 550 44 0.07177017440532207 BlancoElbassuoniLM
query_no Q0 347 45 0.06947197429833657 BlancoElbassuoniLM
query_no Q0 76 46 0.06947197429833657 BlancoElbassuoniLM
query_no Q0 338 47 0.06355716199570222 BlancoElbassuoniLM
query_no Q0 356 48 0.06355716199570222 BlancoElbassuoniLM
query_no Q0 94 49 0.06355716199570222 BlancoElbassuoniLM
query_no Q0 210 50 0.06355716199570222 BlancoElbassuoniLM
query_no Q0 459 51 0.060525920868503 BlancoElbassuoniLM
query_no Q0 300 52 0.060525920868503 BlancoElbassuoniLM
query_no Q0 87 53 0.05902362626635793 BlancoElbassuoniLM
query_no Q0 302 54 0.05902362626635793 BlancoElbassuoniLM
query_no Q0 101 55 0.058037861390560636 BlancoElbassuoniLM
query_no Q0 535 56 0.05631386790810617 BlancoElbassuoniLM
query_no Q0 1 57 0.05398735224365219 BlancoElbassuoniLM
query_no Q0 335 58 0.05398735224365219 BlancoElbassuoniLM
query_no Q0 369 59 0.05398735224365219 BlancoElbassuoniLM
query_no Q0 188 60 0.05398735224365219 BlancoElbassuoniLM
query_no Q0 20 61 0.05398735224365219 BlancoElbassuoniLM
query_no Q0 435 62 0.05398735224365219 BlancoElbassuoniLM
query_no Q0 28 63 0.05398735224365219 BlancoElbassuoniLM
query_no Q0 468 64 0.05398735224365219 BlancoElbassuoniLM
query_no Q0 242 65 0.05398735224365219 BlancoElbassuoniLM
query_no Q0 481 66 0.05398735224365219 BlancoElbassuoniLM
query_no Q0 139 67 0.05398735224365219 BlancoElbassuoniLM
query_no Q0 74 68 0.05398735224365219 BlancoElbassuoniLM
query_no Q0 314 69 0.05398735224365219 BlancoElbassuoniLM
query_no Q0 138 70 0.05330431798787659 BlancoElbassuoniLM
query_no Q0 217 71 0.05113969117926473 BlancoElbassuoniLM
query_no Q0 382 72 0.049025367387979885 BlancoElbassuoniLM
query_no Q0 254 73 0.049025367387979885 BlancoElbassuoniLM
query_no Q0 489 74 0.049025367387979885 BlancoElbassuoniLM
query_no Q0 497 75 0.049025367387979885 BlancoElbassuoniLM
query_no Q0 534 76 0.049025367387979885 BlancoElbassuoniLM
query_no Q0 221 77 0.04894645591160587 BlancoElbassuoniLM
query_no Q0 327 78 0.046644588951249184 BlancoElbassuoniLM
query_no Q0 402 79 0.046644588951249184 BlancoElbassuoniLM
query_no Q0 424 80 0.046644588951249184 BlancoElbassuoniLM
query_no Q0 269 81 0.046644588951249184 BlancoElbassuoniLM
query_no Q0 149 82 0.046644588951249184 BlancoElbassuoniLM
query_no Q0 577 83 0.046644588951249184 BlancoElbassuoniLM
query_no Q0 163 84 0.045153145595261256 BlancoElbassuoniLM
query_no Q0 512 85 0.044344556879058326 BlancoElbassuoniLM
query_no Q0 547 86 0.044344556879058326 BlancoElbassuoniLM
query_no Q0 8 87 0.04159616702673749 BlancoElbassuoniLM
query_no Q0 230 88 0.04159616702673749 BlancoElbassuoniLM
query_no Q0 329 89 0.03899616161807669 BlancoElbassuoniLM
query_no Q0 187 90 0.03899616161807669 BlancoElbassuoniLM
query_no Q0 193 91 0.03899616161807669 BlancoElbassuoniLM
query_no Q0 196 92 0.03899616161807669 BlancoElbassuoniLM
query_no Q0 110 93 0.03899616161807669 BlancoElbassuoniLM
query_no Q0 463 94 0.03899616161807669 BlancoElbassuoniLM
query_no Q0 467 95 0.03899616161807669 BlancoElbassuoniLM
query_no Q0 488 96 0.03899616161807669 BlancoElbassuoniLM
query_no Q0 504 97 0.03899616161807669 BlancoElbassuoniLM
query_no Q0 32 98 0.03899616161807669 BlancoElbassuoniLM
query_no Q0 539 99 0.03899616161807669 BlancoElbassuoniLM
query_no Q0 282 100 0.03899616161807669 BlancoElbassuoniLM
query_no Q0 560 101 0.03899616161807669 BlancoElbassuoniLM
query_no Q0 322 102 0.03784522813789835 BlancoElbassuoniLM
query_no Q0 471 103 0.03784522813789835 BlancoElbassuoniLM
query_no Q0 225 104 0.03669521210180292 BlancoElbassuoniLM
query_no Q0 235 105 0.03669521210180292 BlancoElbassuoniLM
query_no Q0 2 106 0.03669521210180292 BlancoElbassuoniLM
query_no Q0 63 107 0.03669521210180292 BlancoElbassuoniLM
query_no Q0 599 108 0.03669521210180292 BlancoElbassuoniLM
query_no Q0 478 109 0.03659495623270582 BlancoElbassuoniLM
query_no Q0 212 110 0.036257591306579864 BlancoElbassuoniLM
query_no Q0 213 111 0.036257591306579864 BlancoElbassuoniLM
query_no Q0 297 112 0.036257591306579864 BlancoElbassuoniLM
query_no Q0 581 113 0.036257591306579864 BlancoElbassuoniLM
query_no Q0 11 114 0.035871179193107436 BlancoElbassuoniLM
query_no Q0 515 115 0.035871179193107436 BlancoElbassuoniLM
query_no Q0 585 116 0.035871179193107436 BlancoElbassuoniLM
query_no Q0 433 117 0.03568125832500174 BlancoElbassuoniLM
query_no Q0 298 118 0.035546112048310166 BlancoElbassuoniLM
query_no Q0 442 119 0.0345335978241254 BlancoElbassuoniLM
query_no Q0 389 120 0.03453284434694505 BlancoElbassuoniLM
query_no Q0 588 121 0.03425179816710276 BlancoElbassuoniLM
query_no Q0 480 122 0.03315108463018121 BlancoElbassuoniLM
query_no Q0 569 123 0.03315108463018121 BlancoElbassuoniLM
query_no Q0 152 124 0.03166484555477312 BlancoElbassuoniLM
query_no Q0 426 125 0.030268218403406634 BlancoElbassuoniLM
query_no Q0 328 126 0.024491006222786563 BlancoElbassuoniLM
query_no Q0 53 127 0.024491006222786563 BlancoElbassuoniLM
query_no Q0 414 128 0.024491006222786563 BlancoElbassuoniLM
query_no Q0 29 129 0.024491006222786563 BlancoElbassuoniLM
query_no Q0 67 130 0.024491006222786563 BlancoElbassuoniLM
query_no Q0 273 131 0.024491006222786563 BlancoElbassuoniLM
query_no Q0 529 132 0.024491006222786563 BlancoElbassuoniLM
query_no Q0 580 133 0.024491006222786563 BlancoElbassuoniLM
query_no Q0 317 134 0.024491006222786563 BlancoElbassuoniLM
query_no Q0 178 135 0.024247145417225804 BlancoElbassuoniLM
query_no Q0 82 136 0.023877682439017257 BlancoElbassuoniLM
query_no Q0 324 137 0.023877682439017257 BlancoElbassuoniLM
query_no Q0 345 138 0.023877682439017257 BlancoElbassuoniLM
query_no Q0 177 139 0.023877682439017257 BlancoElbassuoniLM
query_no Q0 91 140 0.023877682439017257 BlancoElbassuoniLM
query_no Q0 359 141 0.023877682439017257 BlancoElbassuoniLM
query_no Q0 97 142 0.023877682439017257 BlancoElbassuoniLM
query_no Q0 192 143 0.023877682439017257 BlancoElbassuoniLM
query_no Q0 215 144 0.023877682439017257 BlancoElbassuoniLM
query_no Q0 121 145 0.023877682439017257 BlancoElbassuoniLM
query_no Q0 31 146 0.023877682439017257 BlancoElbassuoniLM
query_no Q0 255 147 0.023877682439017257 BlancoElbassuoniLM
query_no Q0 498 148 0.023877682439017257 BlancoElbassuoniLM
query_no Q0 505 149 0.023877682439017257 BlancoElbassuoniLM
query_no Q0 40 150 0.023877682439017257 BlancoElbassuoniLM
query_no Q0 589 151 0.023877682439017257 BlancoElbassuoniLM
query_no Q0 224 152 0.023672251988264094 BlancoElbassuoniLM
query_no Q0 323 153 0.023490349554570196 BlancoElbassuoniLM
query_no Q0 180 154 0.023490349554570196 BlancoElbassuoniLM
query_no Q0 102 155 0.023490349554570196 BlancoElbassuoniLM
query_no Q0 447 156 0.023490349554570196 BlancoElbassuoniLM
query_no Q0 231 157 0.023490349554570196 BlancoElbassuoniLM
query_no Q0 61 158 0.023490349554570196 BlancoElbassuoniLM
query_no Q0 30 159 0.023490349554570196 BlancoElbassuoniLM
query_no Q0 568 160 0.023490349554570196 BlancoElbassuoniLM
query_no Q0 558 161 0.02343684984247542 BlancoElbassuoniLM
query_no Q0 352 162 0.023150570393395242 BlancoElbassuoniLM
query_no Q0 360 163 0.023150570393395242 BlancoElbassuoniLM
query_no Q0 19 164 0.023150570393395242 BlancoElbassuoniLM
query_no Q0 295 165 0.023150570393395242 BlancoElbassuoniLM
query_no Q0 99 166 0.023150570393395242 BlancoElbassuoniLM
query_no Q0 394 167 0.023150570393395242 BlancoElbassuoniLM
query_no Q0 395 168 0.023150570393395242 BlancoElbassuoniLM
query_no Q0 206 169 0.023150570393395242 BlancoElbassuoniLM
query_no Q0 103 170 0.023150570393395242 BlancoElbassuoniLM
query_no Q0 304 171 0.023150570393395242 BlancoElbassuoniLM
query_no Q0 27 172 0.023150570393395242 BlancoElbassuoniLM
query_no Q0 115 173 0.023150570393395242 BlancoElbassuoniLM
query_no Q0 232 174 0.023150570393395242 BlancoElbassuoniLM
query_no Q0 239 175 0.023150570393395242 BlancoElbassuoniLM
query_no Q0 125 176 0.023150570393395242 BlancoElbassuoniLM
query_no Q0 483 177 0.023150570393395242 BlancoElbassuoniLM
query_no Q0 128 178 0.023150570393395242 BlancoElbassuoniLM
query_no Q0 490 179 0.023150570393395242 BlancoElbassuoniLM
query_no Q0 491 180 0.023150570393395242 BlancoElbassuoniLM
query_no Q0 129 181 0.023150570393395242 BlancoElbassuoniLM
query_no Q0 500 182 0.023150570393395242 BlancoElbassuoniLM
query_no Q0 268 183 0.023150570393395242 BlancoElbassuoniLM
query_no Q0 137 184 0.023150570393395242 BlancoElbassuoniLM
query_no Q0 271 185 0.023150570393395242 BlancoElbassuoniLM
query_no Q0 276 186 0.023150570393395242 BlancoElbassuoniLM
query_no Q0 69 187 0.023150570393395242 BlancoElbassuoniLM
query_no Q0 153 188 0.023150570393395242 BlancoElbassuoniLM
query_no Q0 303 189 0.023150570393395242 BlancoElbassuoniLM
query_no Q0 157 190 0.023150570393395242 BlancoElbassuoniLM
query_no Q0 41 191 0.023150570393395242 BlancoElbassuoniLM
query_no Q0 315 192 0.023150570393395242 BlancoElbassuoniLM
query_no Q0 299 193 0.022862642853447072 BlancoElbassuoniLM
query_no Q0 593 194 0.022862642853447072 BlancoElbassuoniLM
query_no Q0 4 195 0.022338267254665103 BlancoElbassuoniLM
query_no Q0 127 196 0.022338267254665103 BlancoElbassuoniLM
query_no Q0 343 197 0.022190974150595698 BlancoElbassuoniLM
query_no Q0 365 198 0.022190974150595698 BlancoElbassuoniLM
query_no Q0 56 199 0.022190974150595698 BlancoElbassuoniLM
query_no Q0 111 200 0.022190974150595698 BlancoElbassuoniLM
query_no Q0 434 201 0.022190974150595698 BlancoElbassuoniLM
query_no Q0 229 202 0.022190974150595698 BlancoElbassuoniLM
query_no Q0 243 203 0.022190974150595698 BlancoElbassuoniLM
query_no Q0 479 204 0.022190974150595698 BlancoElbassuoniLM
query_no Q0 280 205 0.022190974150595698 BlancoElbassuoniLM
query_no Q0 147 206 0.022190974150595698 BlancoElbassuoniLM
query_no Q0 308 207 0.022190974150595698 BlancoElbassuoniLM
query_no Q0 59 208 0.021714914041213115 BlancoElbassuoniLM
query_no Q0 296 209 0.021714914041213115 BlancoElbassuoniLM
query_no Q0 23 210 0.021577650366826392 BlancoElbassuoniLM
query_no Q0 439 211 0.021577650366826392 BlancoElbassuoniLM
query_no Q0 281 212 0.021577650366826392 BlancoElbassuoniLM
query_no Q0 143 213 0.021577650366826392 BlancoElbassuoniLM
query_no Q0 342 214 0.02093448397858255 BlancoElbassuoniLM
query_no Q0 226 215 0.02085145430380706 BlancoElbassuoniLM
query_no Q0 556 216 0.02085145430380706 BlancoElbassuoniLM
query_no Q0 386 217 0.020801216133509038 BlancoElbassuoniLM
query_no Q0 384 218 0.019995031015086023 BlancoElbassuoniLM
query_no Q0 109 219 0.019995031015086023 BlancoElbassuoniLM
query_no Q0 265 220 0.019995031015086023 BlancoElbassuoniLM
query_no Q0 148 221 0.019995031015086023 BlancoElbassuoniLM
query_no Q0 238 222 0.019892774043610194 BlancoElbassuoniLM
query_no Q0 537 223 0.01965320350799361 BlancoElbassuoniLM
query_no Q0 166 224 0.01927945025984089 BlancoElbassuoniLM
query_no Q0 186 225 0.01927945025984089 BlancoElbassuoniLM
query_no Q0 136 226 0.01927945025984089 BlancoElbassuoniLM
query_no Q0 272 227 0.01927945025984089 BlancoElbassuoniLM
query_no Q0 552 228 0.0185008911137547 BlancoElbassuoniLM
query_no Q0 533 229 0.018277195875562792 BlancoElbassuoniLM
query_no Q0 385 230 0.017596402985848796 BlancoElbassuoniLM
query_no Q0 169 231 0.016842578889614063 BlancoElbassuoniLM
query_no Q0 293 232 0.016842578889614063 BlancoElbassuoniLM
query_no Q0 400 233 0.016842578889614063 BlancoElbassuoniLM
query_no Q0 441 234 0.016842578889614063 BlancoElbassuoniLM
query_no Q0 454 235 0.016842578889614063 BlancoElbassuoniLM
query_no Q0 501 236 0.016842578889614063 BlancoElbassuoniLM
query_no Q0 13 237 0.016842578889614063 BlancoElbassuoniLM
query_no Q0 140 238 0.016842578889614063 BlancoElbassuoniLM
query_no Q0 294 239 0.016842578889614063 BlancoElbassuoniLM
query_no Q0 150 240 0.016842578889614063 BlancoElbassuoniLM
query_no Q0 519 241 0.016561403751553568 BlancoElbassuoniLM
query_no Q0 6 242 0.016229255105844758 BlancoElbassuoniLM
query_no Q0 286 243 0.016229255105844758 BlancoElbassuoniLM
query_no Q0 524 244 0.016229255105844758 BlancoElbassuoniLM
query_no Q0 164 245 0.01605362877945388 BlancoElbassuoniLM
query_no Q0 368 246 0.01605362877945388 BlancoElbassuoniLM
query_no Q0 209 247 0.01605362877945388 BlancoElbassuoniLM
query_no Q0 277 248 0.01605362877945388 BlancoElbassuoniLM
query_no Q0 541 249 0.01605362877945388 BlancoElbassuoniLM
query_no Q0 553 250 0.01605362877945388 BlancoElbassuoniLM
query_no Q0 305 251 0.01605362877945388 BlancoElbassuoniLM
query_no Q0 290 252 0.015691645409435726 BlancoElbassuoniLM
query_no Q0 47 253 0.015691645409435726 BlancoElbassuoniLM
query_no Q0 363 254 0.015691645409435726 BlancoElbassuoniLM
query_no Q0 377 255 0.015691645409435726 BlancoElbassuoniLM
query_no Q0 436 256 0.015691645409435726 BlancoElbassuoniLM
query_no Q0 118 257 0.015691645409435726 BlancoElbassuoniLM
query_no Q0 494 258 0.015691645409435726 BlancoElbassuoniLM
query_no Q0 270 259 0.015691645409435726 BlancoElbassuoniLM
query_no Q0 559 260 0.015691645409435726 BlancoElbassuoniLM
query_no Q0 484 261 0.015691645409435726 BlancoElbassuoniLM
query_no Q0 78 262 0.015691645409435726 BlancoElbassuoniLM
query_no Q0 353 263 0.015078321625666418 BlancoElbassuoniLM
query_no Q0 66 264 0.015078321625666418 BlancoElbassuoniLM
query_no Q0 393 265 0.015078321625666418 BlancoElbassuoniLM
query_no Q0 438 266 0.015078321625666418 BlancoElbassuoniLM
query_no Q0 409 267 0.015078321625666418 BlancoElbassuoniLM
query_no Q0 173 268 0.014901546479548788 BlancoElbassuoniLM
query_no Q0 176 269 0.014901546479548788 BlancoElbassuoniLM
query_no Q0 244 270 0.014901546479548788 BlancoElbassuoniLM
query_no Q0 130 271 0.014901546479548788 BlancoElbassuoniLM
query_no Q0 44 272 0.014541629373340293 BlancoElbassuoniLM
query_no Q0 58 273 0.014541629373340293 BlancoElbassuoniLM
query_no Q0 70 274 0.014541629373340293 BlancoElbassuoniLM
query_no Q0 199 275 0.014541629373340293 BlancoElbassuoniLM
query_no Q0 562 276 0.014541629373340293 BlancoElbassuoniLM
query_no Q0 527 277 0.014541629373340293 BlancoElbassuoniLM
query_no Q0 55 278 0.014541629373340293 BlancoElbassuoniLM
query_no Q0 219 279 0.014541629373340293 BlancoElbassuoniLM
query_no Q0 233 280 0.014541629373340293 BlancoElbassuoniLM
query_no Q0 237 281 0.014541629373340293 BlancoElbassuoniLM
query_no Q0 476 282 0.014541629373340293 BlancoElbassuoniLM
query_no Q0 258 283 0.014541629373340293 BlancoElbassuoniLM
query_no Q0 594 284 0.013928305589570988 BlancoElbassuoniLM
query_no Q0 182 285 0.013928305589570988 BlancoElbassuoniLM
query_no Q0 532 286 0.013928305589570988 BlancoElbassuoniLM
query_no Q0 564 287 0.013928305589570988 BlancoElbassuoniLM
query_no Q0 557 288 0.013928305589570988 BlancoElbassuoniLM
query_no Q0 350 289 0.013392529319847541 BlancoElbassuoniLM
query_no Q0 116 290 0.013392529319847541 BlancoElbassuoniLM
query_no Q0 141 291 0.013392529319847541 BlancoElbassuoniLM
query_no Q0 252 292 0.013392529319847541 BlancoElbassuoniLM
query_no Q0 487 293 0.013392529319847541 BlancoElbassuoniLM
query_no Q0 574 294 0.0131581063902304 BlancoElbassuoniLM
query_no Q0 536 295 0.012779205536078236 BlancoElbassuoniLM
query_no Q0 598 296 0.012779205536078236 BlancoElbassuoniLM
query_no Q0 253 297 0.012244343790966842 BlancoElbassuoniLM
query_no Q0 388 298 0.012216482732877296 BlancoElbassuoniLM
query_no Q0 364 299 0.011984320119525072 BlancoElbassuoniLM
query_no Q0 469 300 0.011984320119525072 BlancoElbassuoniLM
query_no Q0 511 301 0.011984320119525072 BlancoElbassuoniLM
query_no Q0 551 302 0.011984320119525072 BlancoElbassuoniLM
query_no Q0 451 303 0.011640211488590931 BlancoElbassuoniLM
query_no Q0 546 304 0.011640211488590931 BlancoElbassuoniLM
query_no Q0 172 305 0.011640211488590931 BlancoElbassuoniLM
query_no Q0 525 306 0.011640211488590931 BlancoElbassuoniLM
query_no Q0 339 307 0.011640211488590931 BlancoElbassuoniLM
query_no Q0 174 308 0.011640211488590931 BlancoElbassuoniLM
query_no Q0 349 309 0.011640211488590931 BlancoElbassuoniLM
query_no Q0 90 310 0.011640211488590931 BlancoElbassuoniLM
query_no Q0 371 311 0.011640211488590931 BlancoElbassuoniLM
query_no Q0 461 312 0.011640211488590931 BlancoElbassuoniLM
query_no Q0 376 313 0.011640211488590931 BlancoElbassuoniLM
query_no Q0 200 314 0.011640211488590931 BlancoElbassuoniLM
query_no Q0 401 315 0.011640211488590931 BlancoElbassuoniLM
query_no Q0 403 316 0.011640211488590931 BlancoElbassuoniLM
query_no Q0 410 317 0.011640211488590931 BlancoElbassuoniLM
query_no Q0 457 318 0.011640211488590931 BlancoElbassuoniLM
query_no Q0 214 319 0.011640211488590931 BlancoElbassuoniLM
query_no Q0 418 320 0.011640211488590931 BlancoElbassuoniLM
query_no Q0 432 321 0.011640211488590931 BlancoElbassuoniLM
query_no Q0 39 322 0.011640211488590931 BlancoElbassuoniLM
query_no Q0 142 323 0.011640211488590931 BlancoElbassuoniLM
query_no Q0 475 324 0.011640211488590931 BlancoElbassuoniLM
query_no Q0 445 325 0.011640211488590931 BlancoElbassuoniLM
query_no Q0 472 326 0.011640211488590931 BlancoElbassuoniLM
query_no Q0 234 327 0.011640211488590931 BlancoElbassuoniLM
query_no Q0 259 328 0.011640211488590931 BlancoElbassuoniLM
query_no Q0 122 329 0.011640211488590931 BlancoElbassuoniLM
query_no Q0 579 330 0.011640211488590931 BlancoElbassuoniLM
query_no Q0 572 331 0.011640211488590931 BlancoElbassuoniLM
query_no Q0 470 332 0.011640211488590931 BlancoElbassuoniLM
query_no Q0 146 333 0.011640211488590931 BlancoElbassuoniLM
query_no Q0 65 334 0.011640211488590931 BlancoElbassuoniLM
query_no Q0 466 335 0.011640211488590931 BlancoElbassuoniLM
query_no Q0 392 336 0.011640211488590931 BlancoElbassuoniLM
query_no Q0 508 337 0.011640211488590931 BlancoElbassuoniLM
query_no Q0 449 338 0.011640211488590931 BlancoElbassuoniLM
query_no Q0 526 339 0.011640211488590931 BlancoElbassuoniLM
query_no Q0 485 340 0.011640211488590931 BlancoElbassuoniLM
query_no Q0 68 341 0.011640211488590931 BlancoElbassuoniLM
query_no Q0 284 342 0.011640211488590931 BlancoElbassuoniLM
query_no Q0 545 343 0.011640211488590931 BlancoElbassuoniLM
query_no Q0 287 344 0.011640211488590931 BlancoElbassuoniLM
query_no Q0 502 345 0.011640211488590931 BlancoElbassuoniLM
query_no Q0 267 346 0.011640211488590931 BlancoElbassuoniLM
query_no Q0 578 347 0.011640211488590931 BlancoElbassuoniLM
query_no Q0 584 348 0.011640211488590931 BlancoElbassuoniLM
query_no Q0 597 349 0.011640211488590931 BlancoElbassuoniLM
query_no Q0 77 350 0.011640211488590931 BlancoElbassuoniLM
query_no Q0 310 351 0.011640211488590931 BlancoElbassuoniLM
query_no Q0 311 352 0.011640211488590931 BlancoElbassuoniLM
query_no Q0 160 353 0.011640211488590931 BlancoElbassuoniLM
query_no Q0 161 354 0.011640211488590931 BlancoElbassuoniLM
query_no Q0 80 355 0.011640211488590931 BlancoElbassuoniLM
query_no Q0 495 356 0.011064170338638385 BlancoElbassuoniLM
query_no Q0 84 357 0.011064170338638385 BlancoElbassuoniLM
query_no Q0 5 358 0.011064170338638385 BlancoElbassuoniLM
query_no Q0 355 359 0.011064170338638385 BlancoElbassuoniLM
query_no Q0 567 360 0.011064170338638385 BlancoElbassuoniLM
query_no Q0 222 361 0.011064170338638385 BlancoElbassuoniLM
query_no Q0 528 362 0.011064170338638385 BlancoElbassuoniLM
query_no Q0 17 363 0.011064170338638385 BlancoElbassuoniLM
query_no Q0 465 364 0.011064170338638385 BlancoElbassuoniLM
query_no Q0 167 365 0.010832237819619981 BlancoElbassuoniLM
query_no Q0 337 366 0.010832237819619981 BlancoElbassuoniLM
query_no Q0 336 367 0.010832237819619981 BlancoElbassuoniLM
query_no Q0 477 368 0.010832237819619981 BlancoElbassuoniLM
query_no Q0 88 369 0.010832237819619981 BlancoElbassuoniLM
query_no Q0 596 370 0.010832237819619981 BlancoElbassuoniLM
query_no Q0 107 371 0.010832237819619981 BlancoElbassuoniLM
query_no Q0 92 372 0.010832237819619981 BlancoElbassuoniLM
query_no Q0 291 373 0.010832237819619981 BlancoElbassuoniLM
query_no Q0 437 374 0.010832237819619981 BlancoElbassuoniLM
query_no Q0 203 375 0.010832237819619981 BlancoElbassuoniLM
query_no Q0 398 376 0.010832237819619981 BlancoElbassuoniLM
query_no Q0 175 377 0.010832237819619981 BlancoElbassuoniLM
query_no Q0 421 378 0.010832237819619981 BlancoElbassuoniLM
query_no Q0 184 379 0.010832237819619981 BlancoElbassuoniLM
query_no Q0 207 380 0.010832237819619981 BlancoElbassuoniLM
query_no Q0 313 381 0.010832237819619981 BlancoElbassuoniLM
query_no Q0 227 382 0.010832237819619981 BlancoElbassuoniLM
query_no Q0 413 383 0.010832237819619981 BlancoElbassuoniLM
query_no Q0 34 384 0.010832237819619981 BlancoElbassuoniLM
query_no Q0 256 385 0.010832237819619981 BlancoElbassuoniLM
query_no Q0 223 386 0.010832237819619981 BlancoElbassuoniLM
query_no Q0 455 387 0.010832237819619981 BlancoElbassuoniLM
query_no Q0 361 388 0.010832237819619981 BlancoElbassuoniLM
query_no Q0 591 389 0.010832237819619981 BlancoElbassuoniLM
query_no Q0 530 390 0.010832237819619981 BlancoElbassuoniLM
query_no Q0 72 391 0.010832237819619981 BlancoElbassuoniLM
query_no Q0 158 392 0.010832237819619981 BlancoElbassuoniLM
query_no Q0 586 393 0.010832237819619981 BlancoElbassuoniLM
query_no Q0 126 394 0.010832237819619981 BlancoElbassuoniLM
query_no Q0 518 395 0.010832237819619981 BlancoElbassuoniLM
query_no Q0 540 396 0.010832237819619981 BlancoElbassuoniLM
query_no Q0 73 397 0.010832237819619981 BlancoElbassuoniLM
query_no Q0 548 398 0.009950294293529177 BlancoElbassuoniLM
query_no Q0 278 399 0.009950294293529177 BlancoElbassuoniLM
query_no Q0 509 400 0.009912777587269918 BlancoElbassuoniLM
query_no Q0 397 401 0.009912777587269918 BlancoElbassuoniLM
query_no Q0 319 402 0.009680615341040515 BlancoElbassuoniLM
query_no Q0 81 403 0.009680615341040515 BlancoElbassuoniLM
query_no Q0 510 404 0.009680615341040515 BlancoElbassuoniLM
query_no Q0 370 405 0.009680615341040515 BlancoElbassuoniLM
query_no Q0 543 406 0.009680615341040515 BlancoElbassuoniLM
query_no Q0 211 407 0.009680615341040515 BlancoElbassuoniLM
query_no Q0 381 408 0.009680615341040515 BlancoElbassuoniLM
query_no Q0 266 409 0.009680615341040515 BlancoElbassuoniLM
query_no Q0 523 410 0.009680615341040515 BlancoElbassuoniLM
query_no Q0 42 411 0.009680615341040515 BlancoElbassuoniLM
query_no Q0 195 412 0.009680615341040515 BlancoElbassuoniLM
query_no Q0 542 413 0.009680615341040515 BlancoElbassuoniLM
query_no Q0 549 414 0.009680615341040515 BlancoElbassuoniLM
query_no Q0 396 415 0.009680615341040515 BlancoElbassuoniLM
query_no Q0 250 416 0.009680615341040515 BlancoElbassuoniLM
query_no Q0 405 417 0.009680615341040515 BlancoElbassuoniLM
query_no Q0 0 418 0.009680615341040515 BlancoElbassuoniLM
query_no Q0 506 419 0.009680615341040515 BlancoElbassuoniLM
query_no Q0 288 420 0.009680615341040515 BlancoElbassuoniLM
query_no Q0 95 421 0.009680615341040515 BlancoElbassuoniLM
query_no Q0 444 422 0.009680615341040515 BlancoElbassuoniLM
query_no Q0 15 423 0.009680615341040515 BlancoElbassuoniLM
query_no Q0 391 424 0.009680615341040515 BlancoElbassuoniLM
query_no Q0 450 425 0.009680615341040515 BlancoElbassuoniLM
query_no Q0 496 426 0.009680615341040515 BlancoElbassuoniLM
query_no Q0 566 427 0.009680615341040515 BlancoElbassuoniLM
query_no Q0 378 428 0.009680615341040515 BlancoElbassuoniLM
query_no Q0 416 429 0.009680615341040515 BlancoElbassuoniLM
query_no Q0 156 430 0.009680615341040515 BlancoElbassuoniLM
query_no Q0 301 431 0.008799360813350837 BlancoElbassuoniLM
query_no Q0 462 432 0.008799360813350837 BlancoElbassuoniLM
query_no Q0 285 433 0.008799360813350837 BlancoElbassuoniLM
query_no Q0 108 434 0.008799360813350837 BlancoElbassuoniLM
query_no Q0 316 435 0.008799360813350837 BlancoElbassuoniLM
query_no Q0 263 436 0.008455960936549343 BlancoElbassuoniLM
query_no Q0 334 437 0.008147174072948488 BlancoElbassuoniLM
query_no Q0 366 438 0.008147174072948488 BlancoElbassuoniLM
query_no Q0 307 439 0.008147174072948488 BlancoElbassuoniLM
query_no Q0 555 440 0.008147174072948488 BlancoElbassuoniLM
query_no Q0 185 441 0.008147174072948488 BlancoElbassuoniLM
query_no Q0 425 442 0.008147174072948488 BlancoElbassuoniLM
query_no Q0 162 443 0.007879689692262978 BlancoElbassuoniLM
query_no Q0 7 444 0.007649344777255406 BlancoElbassuoniLM
query_no Q0 333 445 0.007649344777255406 BlancoElbassuoniLM
query_no Q0 131 446 0.007649344777255406 BlancoElbassuoniLM
query_no Q0 412 447 0.0075709028286621224 BlancoElbassuoniLM
query_no Q0 321 448 0.0075709028286621224 BlancoElbassuoniLM
query_no Q0 190 449 0.0075709028286621224 BlancoElbassuoniLM
query_no Q0 104 450 0.0075709028286621224 BlancoElbassuoniLM
query_no Q0 374 451 0.0075709028286621224 BlancoElbassuoniLM
query_no Q0 486 452 0.0075709028286621224 BlancoElbassuoniLM
query_no Q0 50 453 0.0075709028286621224 BlancoElbassuoniLM
query_no Q0 10 454 0.0075709028286621224 BlancoElbassuoniLM
query_no Q0 16 455 0.007303648542310432 BlancoElbassuoniLM
query_no Q0 165 456 0.007303648542310432 BlancoElbassuoniLM
query_no Q0 595 457 0.006994861678709576 BlancoElbassuoniLM
query_no Q0 312 458 0.006994861678709576 BlancoElbassuoniLM
query_no Q0 340 459 0.006994861678709576 BlancoElbassuoniLM
query_no Q0 320 460 0.006994861678709576 BlancoElbassuoniLM
query_no Q0 415 461 0.006994861678709576 BlancoElbassuoniLM
query_no Q0 326 462 0.006994861678709576 BlancoElbassuoniLM
query_no Q0 456 463 0.006994861678709576 BlancoElbassuoniLM
query_no Q0 292 464 0.006994861678709576 BlancoElbassuoniLM
query_no Q0 194 465 0.006994861678709576 BlancoElbassuoniLM
query_no Q0 538 466 0.006994861678709576 BlancoElbassuoniLM
query_no Q0 372 467 0.006727837303020699 BlancoElbassuoniLM
query_no Q0 367 468 0.006727837303020699 BlancoElbassuoniLM
query_no Q0 482 469 0.006727837303020699 BlancoElbassuoniLM
query_no Q0 89 470 0.006727837303020699 BlancoElbassuoniLM
query_no Q0 123 471 0.006727837303020699 BlancoElbassuoniLM
query_no Q0 544 472 0.006727837303020699 BlancoElbassuoniLM
query_no Q0 406 473 0.006727837303020699 BlancoElbassuoniLM
query_no Q0 3 474 0.006727837303020699 BlancoElbassuoniLM
query_no Q0 236 475 0.006727837303020699 BlancoElbassuoniLM
query_no Q0 419 476 0.006727837303020699 BlancoElbassuoniLM
query_no Q0 390 477 0.006727837303020699 BlancoElbassuoniLM
query_no Q0 443 478 0.006419050439419843 BlancoElbassuoniLM
query_no Q0 45 479 0.006419050439419843 BlancoElbassuoniLM
query_no Q0 428 480 0.006419050439419843 BlancoElbassuoniLM
query_no Q0 430 481 0.006419050439419843 BlancoElbassuoniLM
query_no Q0 119 482 0.006419050439419843 BlancoElbassuoniLM
query_no Q0 531 483 0.006419050439419843 BlancoElbassuoniLM
query_no Q0 145 484 0.006419050439419843 BlancoElbassuoniLM
query_no Q0 582 485 0.006419050439419843 BlancoElbassuoniLM
query_no Q0 331 486 0.006419050439419843 BlancoElbassuoniLM
query_no Q0 309 487 0.006419050439419843 BlancoElbassuoniLM
query_no Q0 48 488 0.006419050439419843 BlancoElbassuoniLM
query_no Q0 79 489 0.006419050439419843 BlancoElbassuoniLM
query_no Q0 452 490 0.006419050439419843 BlancoElbassuoniLM
query_no Q0 592 491 0.006419050439419843 BlancoElbassuoniLM
query_no Q0 458 492 0.006419050439419843 BlancoElbassuoniLM
query_no Q0 417 493 0.006419050439419843 BlancoElbassuoniLM
query_no Q0 54 494 0.004413417290862949 BlancoElbassuoniLM
